Life Expectancy Analysis
…
## The following objects are masked from 'package:base':
## 
##     date, intersect, setdiff, union

library(dplyr)
library(ggplot2)
library(readr)

Importing the data for Analysis

data<- read_csv( "Life Expectancy Data.csv",show_col_types = FALSE)
data

## # A tibble: 2,938 x 22
##    Country      Year Status     `Life expectanc~ `Adult Mortalit~ `infant deaths`
##    <chr>       <dbl> <chr>                 <dbl>            <dbl>           <dbl>
##  1 Afghanistan  2015 Developing             65                263              62
##  2 Afghanistan  2014 Developing             59.9              271              64
##  3 Afghanistan  2013 Developing             59.9              268              66
##  4 Afghanistan  2012 Developing             59.5              272              69
##  5 Afghanistan  2011 Developing             59.2              275              71
##  6 Afghanistan  2010 Developing             58.8              279              74
##  7 Afghanistan  2009 Developing             58.6              281              77
##  8 Afghanistan  2008 Developing             58.1              287              80
##  9 Afghanistan  2007 Developing             57.5              295              82
## 10 Afghanistan  2006 Developing             57.3              295              84
## # ... with 2,928 more rows, and 16 more variables: Alcohol <dbl>,
## #   percentage expenditure <dbl>, Hepatitis B <dbl>, Measles <dbl>, BMI <dbl>,
## #   under-five deaths <dbl>, Polio <dbl>, Total expenditure <dbl>,
## #   Diphtheria <dbl>, HIV/AIDS <dbl>, GDP <dbl>, Population <dbl>,
## #   thinness  1-19 years <dbl>, thinness 5-9 years <dbl>,
## #   Income composition of resources <dbl>, Schooling <dbl>
…
Cleaning the data set

looking at the summary of the data to see if there are any problems. Summary statistics show that there are many rows which contain NA values.Hence, cleaning the data by deleting the rows which contain NAs.

data_clean <-na.omit(data)
print(data_clean)

## # A tibble: 1,649 x 22
##    Country      Year Status     `Life expectanc~ `Adult Mortalit~ `infant deaths`
##    <chr>       <dbl> <chr>                 <dbl>            <dbl>           <dbl>
##  1 Afghanistan  2015 Developing             65                263              62
##  2 Afghanistan  2014 Developing             59.9              271              64
##  3 Afghanistan  2013 Developing             59.9              268              66
##  4 Afghanistan  2012 Developing             59.5              272              69
##  5 Afghanistan  2011 Developing             59.2              275              71
##  6 Afghanistan  2010 Developing             58.8              279              74
##  7 Afghanistan  2009 Developing             58.6              281              77
##  8 Afghanistan  2008 Developing             58.1              287              80
##  9 Afghanistan  2007 Developing             57.5              295              82
## 10 Afghanistan  2006 Developing             57.3              295              84
## # ... with 1,639 more rows, and 16 more variables: Alcohol <dbl>,
## #   percentage expenditure <dbl>, Hepatitis B <dbl>, Measles <dbl>, BMI <dbl>,
## #   under-five deaths <dbl>, Polio <dbl>, Total expenditure <dbl>,
## #   Diphtheria <dbl>, HIV/AIDS <dbl>, GDP <dbl>, Population <dbl>,
## #   thinness  1-19 years <dbl>, thinness 5-9 years <dbl>,
## #   Income composition of resources <dbl>, Schooling <dbl>
…
## Warning: `funs()` was deprecated in dplyr 0.8.0.
## Please use a list of either functions or lambdas: 
## 
##   # Simple named list: 
##   list(mean = mean, median = median)
## 
##   # Auto named with `tibble::lst()`: 
##   tibble::lst(mean, median)
## 
##   # Using lambdas
##   list(~ mean(., trim = .2), ~ median(., na.rm = TRUE))

ungroup(data_clean)

## # A tibble: 1,649 x 22
##    Country      Year Status     `Life expectanc~ `Adult Mortalit~ `infant deaths`
##    <chr>       <dbl> <chr>                 <dbl>            <dbl>           <dbl>
##  1 Afghanistan  2015 Developing             65                263              62
##  2 Afghanistan  2014 Developing             59.9              271              64
##  3 Afghanistan  2013 Developing             59.9              268              66
##  4 Afghanistan  2012 Developing             59.5              272              69
##  5 Afghanistan  2011 Developing             59.2              275              71
##  6 Afghanistan  2010 Developing             58.8              279              74
##  7 Afghanistan  2009 Developing             58.6              281              77
##  8 Afghanistan  2008 Developing             58.1              287              80
##  9 Afghanistan  2007 Developing             57.5              295              82
## 10 Afghanistan  2006 Developing             57.3              295              84
## # ... with 1,639 more rows, and 16 more variables: Alcohol <dbl>,
## #   percentage expenditure <dbl>, Hepatitis B <dbl>, Measles <dbl>, BMI <dbl>,
## #   under-five deaths <dbl>, Polio <dbl>, Total expenditure <dbl>,
## #   Diphtheria <dbl>, HIV/AIDS <dbl>, GDP <dbl>, Population <dbl>,
## #   thinness  1-19 years <dbl>, thinness 5-9 years <dbl>,
## #   Income composition of resources <dbl>, Schooling <dbl>

print(data_global_trend)

## # A tibble: 31 x 21
##     Year Status     `Life expectancy` `Adult Mortality` `infant deaths` Alcohol
##    <dbl> <chr>                  <dbl>             <dbl>           <dbl>   <dbl>
##  1  2000 Developed               76.1              91.7            1.38   10.6 
##  2  2000 Developing              68.6             197.            26.7     3.76
##  3  2001 Developed               76.6              84.9            1.29   10.4 
##  4  2001 Developing              68.6             181.            25.8     3.85
##  5  2002 Developed               76.9              94.9            1.29   10.7 
##  6  2002 Developing              66.9             188.            25.7     3.81
##  7  2003 Developed               77.2              78.9            1.07   10.6 
##  8  2003 Developing              66.7             191.            30.2     3.59
##  9  2004 Developed               77.9              87.8            1.07   10.9 
## 10  2004 Developing              66.8             201.            45.7     3.67
## # ... with 21 more rows, and 15 more variables: percentage expenditure <dbl>,
## #   Hepatitis B <dbl>, Measles <dbl>, BMI <dbl>, under-five deaths <dbl>,
## #   Polio <dbl>, Total expenditure <dbl>, Diphtheria <dbl>, HIV/AIDS <dbl>,
## #   GDP <dbl>, Population <dbl>, thinness  1-19 years <dbl>,
## #   thinness 5-9 years <dbl>, Income composition of resources <dbl>,
## #   Schooling <dbl>
…
As can be seen from the graphs :

All the economic factors have a positive correlation with the Life expectancy. This suggests better the fiscal health of the nation > better is the expenditure on health infrastructure and services > better is the Life expectancy.

Also, as expected developed nations have stronger fiscal health as compared to developing nations.

Global Life Expectancy Analysis : Country Wise

Preparing copies of data in relevant format. - data_countries : country-wise avg statistics over the period of 2000 to 2015 - d2 : a copy of data_countries with a shorter name.

data_countries <- data_clean %>%group_by(Country,Status)%>% select(-c(Year))%>% summarise_each(funs( mean(.,na.rm = TRUE)))%>%ungroup()
ungroup(data_clean)

## # A tibble: 1,649 x 22
##    Country      Year Status     `Life expectanc~ `Adult Mortalit~ `infant deaths`
##    <chr>       <dbl> <chr>                 <dbl>            <dbl>           <dbl>
##  1 Afghanistan  2015 Developing             65                263              62
##  2 Afghanistan  2014 Developing             59.9              271              64
##  3 Afghanistan  2013 Developing             59.9              268              66
##  4 Afghanistan  2012 Developing             59.5              272              69
##  5 Afghanistan  2011 Developing             59.2              275              71
##  6 Afghanistan  2010 Developing             58.8              279              74
##  7 Afghanistan  2009 Developing             58.6              281              77
##  8 Afghanistan  2008 Developing             58.1              287              80
##  9 Afghanistan  2007 Developing             57.5              295              82
## 10 Afghanistan  2006 Developing             57.3              295              84
## # ... with 1,639 more rows, and 16 more variables: Alcohol <dbl>,
## #   percentage expenditure <dbl>, Hepatitis B <dbl>, Measles <dbl>, BMI <dbl>,
## #   under-five deaths <dbl>, Polio <dbl>, Total expenditure <dbl>,
## #   Diphtheria <dbl>, HIV/AIDS <dbl>, GDP <dbl>, Population <dbl>,
## #   thinness  1-19 years <dbl>, thinness 5-9 years <dbl>,
## #   Income composition of resources <dbl>, Schooling <dbl>

print(data_countries)

## # A tibble: 133 x 21
##    Country     Status  `Life expectanc~ `Adult Mortalit~ `infant deaths` Alcohol
##    <chr>       <chr>              <dbl>            <dbl>           <dbl>   <dbl>
##  1 Afghanistan Develo~             58.2            269.           78.2    0.0144
##  2 Albania     Develo~             75.2             45.1           0.688  4.85  
##  3 Algeria     Develo~             74.2            103.           20.3    0.447 
##  4 Angola      Develo~             50.7            363.           76.6    7.62  
##  5 Argentina   Develo~             75.2            100.           10      8.00  
##  6 Armenia     Develo~             73.3            117.            1      3.70  
##  7 Australia   Develo~             81.9             62.4           1     10.2   
##  8 Austria     Develo~             81.5             65.8           0     12.2   
##  9 Azerbaijan  Develo~             71.1            120.            5.77   1.06  
## 10 Bangladesh  Develo~             70.0            136.          142.     0.01  
## # ... with 123 more rows, and 15 more variables: percentage expenditure <dbl>,
## #   Hepatitis B <dbl>, Measles <dbl>, BMI <dbl>, under-five deaths <dbl>,
## #   Polio <dbl>, Total expenditure <dbl>, Diphtheria <dbl>, HIV/AIDS <dbl>,
## #   GDP <dbl>, Population <dbl>, thinness  1-19 years <dbl>,
## #   thinness 5-9 years <dbl>, Income composition of resources <dbl>,
## #   Schooling <dbl>
…
According to the Probability density function (pdf) of Avg Life expectancy of different countries over the period of 2000-2015, one can conclude that the most likely average global expected Life expectancy is about 73 year. Also, the highest Life expectancy across globe is 83yrs which is about 10 years more than the modal value of 73ys.

Country-wise comparison of top performers : in terms of LIfe Expectancy

Preparing copies of data in relevant format. - d3 : a copy of data_clean with a shorter name. - d3_2005 : country wise data for the year 2005 - d3_2014 : country wise data for the year 2014

d3<-data_clean
d3_2005<-d3 %>% filter(Year == 2005 )
d3_2014<-d3 %>% filter(Year == 2014 )

print(d3)

## # A tibble: 1,649 x 22
##    Country      Year Status     `Life expectanc~ `Adult Mortalit~ `infant deaths`
##    <chr>       <dbl> <chr>                 <dbl>            <dbl>           <dbl>
##  1 Afghanistan  2015 Developing             65                263              62
##  2 Afghanistan  2014 Developing             59.9              271              64
##  3 Afghanistan  2013 Developing             59.9              268              66
##  4 Afghanistan  2012 Developing             59.5              272              69
##  5 Afghanistan  2011 Developing             59.2              275              71
##  6 Afghanistan  2010 Developing             58.8              279              74
##  7 Afghanistan  2009 Developing             58.6              281              77
##  8 Afghanistan  2008 Developing             58.1              287              80
##  9 Afghanistan  2007 Developing             57.5              295              82
## 10 Afghanistan  2006 Developing             57.3              295              84
## # ... with 1,639 more rows, and 16 more variables: Alcohol <dbl>,
## #   percentage expenditure <dbl>, Hepatitis B <dbl>, Measles <dbl>, BMI <dbl>,
## #   under-five deaths <dbl>, Polio <dbl>, Total expenditure <dbl>,
## #   Diphtheria <dbl>, HIV/AIDS <dbl>, GDP <dbl>, Population <dbl>,
## #   thinness  1-19 years <dbl>, thinness 5-9 years <dbl>,
## #   Income composition of resources <dbl>, Schooling <dbl>

print(d3_2005)

## # A tibble: 110 x 22
##    Country      Year Status     `Life expectanc~ `Adult Mortalit~ `infant deaths`
##    <chr>       <dbl> <chr>                 <dbl>            <dbl>           <dbl>
##  1 Afghanistan  2005 Developing             57.3              291              85
##  2 Albania      2005 Developing             73.5               15               1
##  3 Algeria      2005 Developing             72.9              136              19
##  4 Argentina    2005 Developing             74.9              127              11
##  5 Armenia      2005 Developing             73                137               1
##  6 Australia    2005 Developed              81                 67               1
##  7 Austria      2005 Developed              79.4               85               0
##  8 Azerbaijan   2005 Developing             68.4              162               6
##  9 Bangladesh   2005 Developing             67.8              155             174
## 10 Belarus      2005 Developing             68.1              252               1
## # ... with 100 more rows, and 16 more variables: Alcohol <dbl>,
## #   percentage expenditure <dbl>, Hepatitis B <dbl>, Measles <dbl>, BMI <dbl>,
## #   under-five deaths <dbl>, Polio <dbl>, Total expenditure <dbl>,
## #   Diphtheria <dbl>, HIV/AIDS <dbl>, GDP <dbl>, Population <dbl>,
## #   thinness  1-19 years <dbl>, thinness 5-9 years <dbl>,
## #   Income composition of resources <dbl>, Schooling <dbl>

print(d3_2014)

## # A tibble: 131 x 22
##    Country      Year Status     `Life expectanc~ `Adult Mortalit~ `infant deaths`
##    <chr>       <dbl> <chr>                 <dbl>            <dbl>           <dbl>
##  1 Afghanistan  2014 Developing             59.9              271              64
##  2 Albania      2014 Developing             77.5                8               0
##  3 Algeria      2014 Developing             75.4               11              21
##  4 Angola       2014 Developing             51.7              348              67
##  5 Argentina    2014 Developing             76.2              118               8
##  6 Armenia      2014 Developing             74.6               12               1
##  7 Australia    2014 Developed              82.7                6               1
##  8 Austria      2014 Developed              81.4               66               0
##  9 Azerbaijan   2014 Developing             72.5              119               5
## 10 Bangladesh   2014 Developing             71.4              132              98
## # ... with 121 more rows, and 16 more variables: Alcohol <dbl>,
## #   percentage expenditure <dbl>, Hepatitis B <dbl>, Measles <dbl>, BMI <dbl>,
## #   under-five deaths <dbl>, Polio <dbl>, Total expenditure <dbl>,
## #   Diphtheria <dbl>, HIV/AIDS <dbl>, GDP <dbl>, Population <dbl>,
## #   thinness  1-19 years <dbl>, thinness 5-9 years <dbl>,
## #   Income composition of resources <dbl>, Schooling <dbl>
…
x_grid <- seq(1, 151)
new_df <- tibble(Schooling = x_grid)
global %>% mutate(pred = predict(mod))

## # A tibble: 31 x 22
##     Year Status     `Life expectancy` `Adult Mortality` `infant deaths` Alcohol
##    <dbl> <chr>                  <dbl>             <dbl>           <dbl>   <dbl>
##  1  2000 Developed               76.1              91.7            1.38   10.6 
##  2  2000 Developing              68.6             197.            26.7     3.76
##  3  2001 Developed               76.6              84.9            1.29   10.4 
##  4  2001 Developing              68.6             181.            25.8     3.85
##  5  2002 Developed               76.9              94.9            1.29   10.7 
##  6  2002 Developing              66.9             188.            25.7     3.81
##  7  2003 Developed               77.2              78.9            1.07   10.6 
##  8  2003 Developing              66.7             191.            30.2     3.59
##  9  2004 Developed               77.9              87.8            1.07   10.9 
## 10  2004 Developing              66.8             201.            45.7     3.67
## # ... with 21 more rows, and 16 more variables: percentage expenditure <dbl>,
## #   Hepatitis B <dbl>, Measles <dbl>, BMI <dbl>, under-five deaths <dbl>,
## #   Polio <dbl>, Total expenditure <dbl>, Diphtheria <dbl>, HIV/AIDS <dbl>,
## #   GDP <dbl>, Population <dbl>, thinness  1-19 years <dbl>,
## #   thinness 5-9 years <dbl>, Income composition of resources <dbl>,
## #   Schooling <dbl>, pred <dbl>
…
